Intro rjags
…
Packages

pacman::p_load(dplyr, ggplot2, rjags, rjags)

Pet Data

N <- 50
true_slope <- 1
true_intercept <- 5
true_sigma <- 2
x <- runif(N, 0, 10)
y <- rnorm(N, true_slope * x + true_intercept, true_sigma)
tibble(x, y)

## # A tibble: 50 x 2
##        x     y
##    <dbl> <dbl>
##  1  6.08  9.81
##  2  4.85 13.1 
##  3  6.63 14.4 
##  4  6.57 10.4 
##  5  3.02  6.42
##  6  8.43 15.3 
##  7  9.32 16.7 
##  8  6.81 10.2 
##  9  2.79  7.10
## 10  4.22 11.2 
## # ... with 40 more rows
…
